{
    "apiVersion": "0.5",
    "apis": [
				{
					"operations": [
						{
							"apiStatus": 1,
							"httpMethod": "POST",
							"nickname": "insert_task_user",
							"parameters": [
								{
									"allowMultiple": false,
									"dataType": "uid",
									"description": "用户ID",
									"paramType": "body",
									"required": true
								},
								{
									"allowMultiple": false,
									"dataType": "task_id",
									"description": "任务ID",
									"paramType": "body",
									"required": true
								}
								,
								{
									"allowMultiple": false,
									"dataType": "status",
									"description": "状态：1为领取任务并完成，0为领取任务但未完成<br/>开始传0，最后任务提交后传1",
									"paramType": "body",
									"required": true
								}
								
							],
							"responseClass": "void",
							"reviser": "完成",
							"revisionDesc": "修改于2014/11/16 15:36",
							"revisionHighlight": true,
							"summary": "个人领取任务",
							"updateTime": "2014/11/16 15:36"
						}
            ],
            "path": "/insert_task_user.php"
        },{
					"operations": [
						{
							"apiStatus": 1,
							"httpMethod": "POST",
							"nickname": "insert_task_status",
							"parameters": [
								{
									"allowMultiple": false,
									"dataType": "uid",
									"description": "用户ID <br><font color=red>说明如下</font><br>1.调用插入数据和更新数据是同一个接口<br>2.需传人值：uid、task_id、status、（z_id，f_id选其中一）<br>3.打开扫描等到的网址路径，续带上参数uid,task_id,zore_id,<br>（start_daka,start_address,start_XXXXX）或者选择end_xxx一组，传上",
									"paramType": "body",
									"required": true
								},
								{
									"allowMultiple": false,
									"dataType": "task_id",
									"description": "任务ID",
									"paramType": "body",
									"required": true
								}
								,
								{
									"allowMultiple": false,
									"dataType": "z_id",
									"description": "准备前列表某项id",
									"paramType": "body",
									"required": true
								},
								{
									"allowMultiple": false,
									"dataType": "f_id",
									"description": "风险id",
									"paramType": "body",
									"required": true
								},
								{
									"allowMultiple": false,
									"dataType": "status",
									"description": "状态 1打勾，0打叉",
									"paramType": "body",
									"required": true
								},
								{
									"allowMultiple": false,
									"dataType": "g_id",
									"description": "过程列表中某个区域id（扫描二维码要用）",
									"paramType": "body",
									"required": true
								},{
									"allowMultiple": false,
									"dataType": "zore_id",
									"description": "区域id---这个不用调用，我忘了他的作用！",
									"paramType": "body",
									"required": true
								},
								{
									"allowMultiple": false,
									"dataType": "start_daka",
									"description": "起点打卡：1为打勾，0为打叉",
									"paramType": "body",
									"required": true
								},
								{
									"allowMultiple": false,
									"dataType": "start_daka_longitude",
									"description": "起点打卡经度",
									"paramType": "body",
									"required": true
								},
								{
									"allowMultiple": false,
									"dataType": "start_daka_latitude",
									"description": "起点打卡纬度",
									"paramType": "body",
									"required": true
								},
								{
									"allowMultiple": false,
									"dataType": "start_daka_address",
									"description": "起始打卡的地位地点名称",
									"paramType": "body",
									"required": true
								},
								{
									"allowMultiple": false,
									"dataType": "end_daka",
									"description": "终点打卡：1为打勾，0为打叉",
									"paramType": "body",
									"required": true
								},
								{
									"allowMultiple": false,
									"dataType": "end_daka_longitude",
									"description": "终点打卡经度",
									"paramType": "body",
									"required": true
								},
								{
									"allowMultiple": false,
									"dataType": "end_daka_latitude",
									"description": "终点打卡纬度",
									"paramType": "body",
									"required": true
								},
								{
									"allowMultiple": false,
									"dataType": "end_daka_address",
									"description": "终点打卡的地位地点名称",
									"paramType": "body",
									"required": true
								}
								
							],
							"responseClass": "void",
							"reviser": "完成",
							"revisionDesc": "修改于2014/11/16 15:36",
							"revisionHighlight": true,
							"summary": "插入更新状态操作",
							"updateTime": "2014/11/16 15:36"
						}
            ],
            "path": "/insert_task_status.php"
        },{
					"operations": [
						{
							"apiStatus": 1,
							"httpMethod": "POST",
							"nickname": "insert_task_four",
							"parameters": [
								{
									"allowMultiple": false,
									"dataType": "uid",
									"description": "用户ID",
									"paramType": "body",
									"required": true
								},
								{
									"allowMultiple": false,
									"dataType": "pid",
									"description": "任务ID",
									"paramType": "body",
									"required": true
								}
								,
								{
									"allowMultiple": false,
									"dataType": "author",
									"description": "用户名称",
									"paramType": "body",
									"required": true
								},
								{
									"allowMultiple": false,
									"dataType": "type0",
									"description": "工作结论",
									"paramType": "body",
									"required": true
								}
								,
								{
									"allowMultiple": false,
									"dataType": "type1",
									"description": "风险变化情况",
									"paramType": "body",
									"required": true
								},
								{
									"allowMultiple": false,
									"dataType": "type2",
									"description": "备注",
									"paramType": "body",
									"required": true
								}
								
							],
							"responseClass": "void",
							"reviser": "完成",
							"revisionDesc": "修改于2014/11/16 15:36",
							"revisionHighlight": true,
							"summary": "插入作业总结数据",
							"updateTime": "2014/11/16 15:36"
						}
            ],
            "path": "/insert_task_four.php"
        },{
					"operations": [
						{
							"apiStatus": 1,
							"httpMethod": "POST",
							"nickname": "insert_task_switch_status",
							"parameters": [
								{
									"allowMultiple": false,
									"dataType": "uid",
									"description": "用户ID",
									"paramType": "body",
									"required": true
								},
								{
									"allowMultiple": false,
									"dataType": "g_id",
									"description": "过程ID",
									"paramType": "body",
									"required": true
								},
								{
									"allowMultiple": false,
									"dataType": "switch_id",
									"description": "开关ID",
									"paramType": "body",
									"required": true
								},
								{
									"allowMultiple": false,
									"dataType": "author",
									"description": "用户名",
									"paramType": "body",
									"required": true
								}
								,
								{
									"allowMultiple": false,
									"dataType": "wendu",
									"description": "温度",
									"paramType": "body",
									"required": true
								},
								{
									"allowMultiple": false,
									"dataType": "yali",
									"description": "压力",
									"paramType": "body",
									"required": true
								}
								,
								{
									"allowMultiple": false,
									"dataType": "quexian",
									"description": "缺陷",
									"paramType": "body",
									"required": true
								}
								
							],
							"responseClass": "void",
							"reviser": "完成",
							"revisionDesc": "修改于2014/11/16 15:36",
							"revisionHighlight": true,
							"summary": "插入开关的温度和压力",
							"updateTime": "2014/11/16 15:36"
						}
            ],
            "path": "/insert_task_switch_status.php"
        }
    ],
    "resourcePath": "/",
    "swaggerVersion": "1.2"
}