{
    "apiVersion": "0.5",
    "apis": [
				{
					"operations": [
						{
							"apiStatus": 2,
							"httpMethod": "POST",
							 "description":"说明",
     
							  "revisionHighlight":true,  
							"nickname": "group_create",
							"parameters": [
								{
									"allowMultiple": false,
									"dataType": "uid",
									"description": "用户Uid",
									"paramType": "body",
									"required": true
								},
								{
									"allowMultiple": false,
									"dataType": "group_name",
									"description": "群名称",
									"paramType": "body",
									"required": true
								},
								{
									"allowMultiple": false,
									"dataType": "uid_duizhang",
									"description": "队长UId",
									"paramType": "body",
									"required": true
								},
								{
									"allowMultiple": false,
									"dataType": "group_type",
									"description": "球队类型（大学，...）",
									"paramType": "body",
									"required": true
								}
								,{
									"allowMultiple": false,
									"dataType": "logo",
									"description": "群头像",
									"paramType": "body",
									"required": true
								},{
									"allowMultiple": false,
									"dataType": "images",
									"description": "背景图片",
									"paramType": "body",
									"required": true
								},
								{
									"allowMultiple": false,
									"dataType": "signature",
									"description": "签名",
									"paramType": "body",
									"required": true
								},
								{
									"allowMultiple": false,
									"dataType": "group_notice",
									"description": "章程",
									"paramType": "body",
									"required": true
								},
								{
									"allowMultiple": false,
									"dataType": "group_description",
									"description": "简介",
									"paramType": "body",
									"required": true
								},
								{
									"allowMultiple": false,
									"dataType": "longitude",
									"description": "longitude",
									"paramType": "body",
									"required": true
								},
								{
									"allowMultiple": false,
									"dataType": "latitude",
									"description": "latitude",
									"paramType": "body",
									"required": true
								},
								{
									"allowMultiple": false,
									"dataType": "num",
									"description": "现有人数（IM接口自己做了！）",
									"paramType": "body",
									"required": true
								},
								{
									"allowMultiple": false,
									"dataType": "maxnum",
									"description": "最大人数",
									"paramType": "body",
									"required": true
								},
								{
									"allowMultiple": false,
									"dataType": "province",
									"description": "省",
									"paramType": "body",
									"required": true
								},
								{
									"allowMultiple": false,
									"dataType": "city",
									"description": "市",
									"paramType": "body",
									"required": true
								},
								{
									"allowMultiple": false,
									"dataType": "address",
									"description": "地址",
									"paramType": "body",
									"required": true
								}
								
							],
							"responseClass": "void",
							"reviser": "完成",
							"revisionDesc": "修改于2014/05/16 15:36",
							"revisionHighlight": true,
							"summary": "创建群组",
							"updateTime": "2014/05/16 15:36"
						}
            ],
            "path": "/group_create.php"
        },{
					"operations": [
						{
							"apiStatus": 1,
							"httpMethod": "POST",
							"nickname": "group_details",
							"parameters": [
								{
									"allowMultiple": false,
									"dataType": "group_id",
									"description": "群组group_id",
									"paramType": "body",
									"required": true
								},{
									"allowMultiple": false,
									"dataType": "uid",
									"description": "被查用户UID",
									"paramType": "body",
									"required": true
								}
								
							],
							"responseClass": "void",
							"reviser": "完成",
							"revisionDesc": "修改于2014/11/16 15:36",
							"revisionHighlight": true,
							"summary": "查看群组详情，被查看是否加入过",
							"updateTime": "2014/11/16 15:36"
						}
            ],
            "path": "/group_details.php"
        },{
					"operations": [
						{
							"apiStatus": 1,
							"httpMethod": "POST",
							"nickname": "group_user_list",
							"parameters": [
								{
									"allowMultiple": false,
									"dataType": "group_id",
									"description": "群group_id",
									"paramType": "body",
									"required": true
								}
							],
							"responseClass": "void",
							"reviser": "完成",
							"revisionDesc": "修改于2015/05/16 15:36",
							"revisionHighlight": true,
							"summary": "测试group_id:1431671093308182",
							"summary": "群组成员·列表",
							"updateTime": "2015/05/16 15:36"
						}
            ],
            "path": "/group_user_list.php"
        },{
					"operations": [
						{
							"apiStatus": 1,
							"httpMethod": "POST",
							"nickname": "group_friend_noingroup_list",
							"parameters": [
								{
									"allowMultiple": false,
									"dataType": "group_id",
									"description": "群group_id",
									"paramType": "body",
									"required": true
								},{
									"allowMultiple": false,
									"dataType": "uid",
									"description": "群主uid",
									"paramType": "body",
									"required": true
								}
							],
							"responseClass": "void",
							"reviser": "完成",
							"revisionDesc": "修改于2015/05/16 15:36",
							"revisionHighlight": true,
							"summary": "测试group_id:1431671093308182",
							"summary": "群主邀请非本群好友列表",
							"updateTime": "2015/05/16 15:36"
						}
            ],
            "path": "/group_friend_noingroup_list.php"
        },{
					"operations": [
						{
							"apiStatus": 1,
							"httpMethod": "POST",
							"nickname": "group_isjoin",
							"parameters": [
								{
									"allowMultiple": false,
									"dataType": "uid",
									"description": "自己的Uid",
									"paramType": "body",
									"required": true
								},{
									"allowMultiple": false,
									"dataType": "group_id",
									"description": "被查看的群组group_id",
									"paramType": "body",
									"required": true
								}
							],
							"responseClass": "void",
							"reviser": "完成",
							"revisionDesc": "修改于2015/05/10 15:36",
							"revisionHighlight": true,
							"summary": "判断群组是否是已经加入",
							 "description":"<font color=blue>用在随机群组上</font>",
							"updateTime": "2015/05/10 15:36"
						}
            ],
            "path": "/group_isjoin.php"
        },{
					"operations": [
						{
							"apiStatus": 1,
							"httpMethod": "POST",
							"nickname": "group_delete",
							"parameters": [
							{
									"allowMultiple": false,
									"dataType": "uid",
									"description": "群主用户Uid",
									"paramType": "body",
									"required": true
								},
								{
									"allowMultiple": false,
									"dataType": "group_id",
									"description": "群组group_id",
									"paramType": "body",
									"required": true
								}
								
							],
							"responseClass": "void",
							"reviser": "完成",
							"revisionDesc": "修改于2014/11/16 15:36",
							"revisionHighlight": true,
							"summary": "解散/删除群",
							"updateTime": "2014/11/16 15:36"
						}
            ],
            "path": "/group_delete.php"
        },{
					"operations": [
						{
							"apiStatus": 2,
							"httpMethod": "POST",
							  "revisionHighlight":true,  
							"nickname": "group_update",
							"parameters": [
							{
									"allowMultiple": false,
									"dataType": "group_id",
									"description": "群组group_id",
									"paramType": "body",
									"required": true
								},
								{
									"allowMultiple": false,
									"dataType": "uid",
									"description": "用户Uid",
									"paramType": "body",
									"required": true
								},
								{
									"allowMultiple": false,
									"dataType": "group_name",
									"description": "群名称",
									"paramType": "body",
									"required": true
								},{
									"allowMultiple": false,
									"dataType": "group_type",
									"description": "群类型",
									"paramType": "body",
									"required": true
								},{
									"allowMultiple": false,
									"dataType": "logo",
									"description": "群头像",
									"paramType": "body",
									"required": true
								},{
									"allowMultiple": false,
									"dataType": "images",
									"description": "背景图片",
									"paramType": "body",
									"required": true
								},{
									"allowMultiple": false,
									"dataType": "signature",
									"description": "签名",
									"paramType": "body",
									"required": true
								},{
									"allowMultiple": false,
									"dataType": "level",
									"description": "等级（1-3）",
									"paramType": "body",
									"required": true
								},
								{
									"allowMultiple": false,
									"dataType": "group_notice",
									"description": "章程",
									"paramType": "body",
									"required": true
								},
								{
									"allowMultiple": false,
									"dataType": "group_description",
									"description": "简要",
									"paramType": "body",
									"required": true
								},{
									"allowMultiple": false,
									"dataType": "school",
									"description": "学校",
									"paramType": "body",
									"required": true
								},
								{
									"allowMultiple": false,
									"dataType": "uid_duizhang",
									"description": "队长",
									"paramType": "body",
									"required": true
								},
								{
									"allowMultiple": false,
									"dataType": "longitude",
									"description": "longitude",
									"paramType": "body",
									"required": true
								},
								{
									"allowMultiple": false,
									"dataType": "latitude",
									"description": "latitude",
									"paramType": "body",
									"required": true
								},
								{
									"allowMultiple": false,
									"dataType": "num",
									"description": "现有人数",
									"paramType": "body",
									"required": true
								},
								{
									"allowMultiple": false,
									"dataType": "maxnum",
									"description": "最大人数",
									"paramType": "body",
									"required": true
								},
								{
									"allowMultiple": false,
									"dataType": "province",
									"description": "省",
									"paramType": "body",
									"required": true
								},
								{
									"allowMultiple": false,
									"dataType": "city",
									"description": "市",
									"paramType": "body",
									"required": true
								},
								{
									"allowMultiple": false,
									"dataType": "address",
									"description": "地址",
									"paramType": "body",
									"required": true
								}
								
							],
							"responseClass": "void",
							"reviser": "完成",
							"revisionDesc": "修改于2014/05/16 15:36",
							"revisionHighlight": true,
							"summary": "更新群组信息",
							"updateTime": "2014/05/16 15:36"
						}
            ],
            "path": "/group_update.php"
        },{
					"operations": [
						{
							"apiStatus": 1,
							"httpMethod": "POST",
							     
							"nickname": "group_list",
							"parameters": [
								{
									"allowMultiple": false,
									"dataType": "uid",
									"description": "用户Uid",
									"paramType": "body",
									"required": false
								}
								
							],
							"responseClass": "void",
							"reviser": "完成",
							"revisionDesc": "修改于2014/05/16 15:36",
							"revisionHighlight": true,
							"summary": "获取用户加入的群组",
							"updateTime": "2014/05/16 15:36"
						}
            ],
            "path": "/group_list.php"
        },{
					"operations": [
						{
							"apiStatus": 2,
							"httpMethod": "POST",
							     
							"nickname": "group_create_list",
							"parameters": [
								{
									"allowMultiple": false,
									"dataType": "uid",
									"description": "用户Uid",
									"paramType": "body",
									"required": false
								}
								
							],
							"responseClass": "void",
							"reviser": "完成",
							"revisionDesc": "修改于2014/05/16 15:36",
							"revisionHighlight": true,
							"summary": "用户创建的群组",
							"updateTime": "2014/05/16 15:36"
						}
            ],
            "path": "/group_create_list.php"
        },{
					"operations": [
						{
							"apiStatus": 1,
							"httpMethod": "POST",
							     
							"nickname": "group_search",
							"parameters": [
								{
									"allowMultiple": false,
									"dataType": "uid",
									"description": "用户Uid",
									"paramType": "body",
									"required": false
								},
								{
									"allowMultiple": false,
									"dataType": "level",
									"description": "等级1，2，3",
									"paramType": "body",
									"required": false
								},
								{
									"allowMultiple": false,
									"dataType": "province",
									"description": "省",
									"paramType": "body",
									"required": false
								},
								{
									"allowMultiple": false,
									"dataType": "city",
									"description": "城市",
									"paramType": "body",
									"required": false
								},
								{
									"allowMultiple": false,
									"dataType": "is_gonghui",
									"description": "不填写为全部 1为群组，2为公会",
									"paramType": "body",
									"required": false
								},
								{
									"allowMultiple": false,
									"dataType": "group_type",
									"description": "不填写为全部  群类型ID（65种）",
									"paramType": "body",
									"required": true
								},
								{
									"allowMultiple": false,
									"dataType": "is_recommend",
									"description": "不填写为全部 1为推荐，2为非推荐",
									"paramType": "body",
									"required": true
								},
								{
									"allowMultiple": false,
									"dataType": "keyword",
									"description": "群名称，不填写为全部",
									"paramType": "body",
									"required": true
								},{
									"allowMultiple": false,
									"dataType": "address",
									"description": "搜索地址",
									"paramType": "body",
									"required": true
								},
								{
									"allowMultiple": false,
									"dataType": "cursor",
									"description": "游标,每次调用都会返回'新游标'用于分页 <br><br><font color=red>开始为0 相当于以前的start，优化了分页</font>",
									"paramType": "body",
									"required": true
								},
								{
									"allowMultiple": false,
									"dataType": "limit",
									"description": "limit 默认为10",
									"paramType": "body",
									"required": true
								}
	
								
							],
							"responseClass": "void",
							"reviser": "完成",
							"revisionDesc": "修改于2014/05/16 15:36",
							"revisionHighlight": true,
							"summary": "搜索群组",
							"updateTime": "2014/05/16 15:36"
						}
            ],
            "path": "/group_search.php"
        },{
					"operations": [
						{
							"apiStatus": 1,
							"httpMethod": "POST",
							"nickname": "group_search_random",
							"parameters": [
								{
									"allowMultiple": false,
									"dataType": "uid",
									"description": "本人uid",
									"paramType": "body",
									"required": true
								}
								
							],
							"responseClass": "void",
							"reviser": "完成",
							"revisionDesc": "修改于2015/05/10 15:36",
							"revisionHighlight": true,
							"summary": "随机群组",
							 "revisionDesc":"测试wu",
							"updateTime": "2015/05/10 15:36"
						}
            ],
            "path": "/group_search_random.php"
        },{
					"operations": [
						{
							"apiStatus": 1,
							"httpMethod": "GET",
							 "description":"app端要监听通知,如果是群主邀请，成员监听，如果成员申请，群主监听",   
							"nickname": "group_user_add",
							"parameters": [
							{
									"allowMultiple": false,
									"dataType": "admin_uid",
									"description": "群主admin_uid，成员申请则不传",
									"paramType": "body",
									"required": true
								},
								{
									"allowMultiple": false,
									"dataType": "uid",
									"description": "入群用户Uid",
									"paramType": "body",
									"required": true
								},
								{
									"allowMultiple": false,
									"dataType": "group_id",
									"description": "群组|公会group_id",
									"paramType": "body",
									"required": true
								},
								{
									"allowMultiple": false,
									"dataType": "content",
									"description": "邀请语",
									"paramType": "body",
									"required": true
								}
								
							],
							"responseClass": "void",
							"reviser": "完成",
							"revisionDesc": "修改于2015/05/16 15:36",
							"revisionHighlight": true,
							"summary": "邀请或申请加入群|公会<font color=red>-->(废弃，调用环)</font>",
							"updateTime": "2015/05/16 15:36"
						}
            ],
            "path": "/group_user_add.php"
        },{
					"operations": [
						{
							"apiStatus": 1,
							"httpMethod": "GET",
							"nickname": "group_user_update",
							 "description":"app端要监听通知</a>",  
							"parameters": [
								{
									"allowMultiple": false,
									"dataType": "uid",
									"description": "用户Uid",
									"paramType": "body",
									"required": true
								},
								{
									"allowMultiple": false,
									"dataType": "group_id",
									"description": "群组group_id",
									"paramType": "body",
									"required": true
								},
								{
									"allowMultiple": false,
									"dataType": "status",
									"description": "1为同意，2为拒绝",
									"paramType": "body",
									"required": true
								},
								{
									"allowMultiple": false,
									"dataType": "content",
									"description": "附带消息",
									"paramType": "body",
									"required": true
								}
								
							],
							"responseClass": "void",
							"reviser": "完成",
							"revisionDesc": "修改于2015/05/16 15:36",
							"revisionHighlight": true,
							"summary": "更新邀请群成员状态<font color=red>-->(废弃，调用环)</font>",
							"updateTime": "2015/05/16 15:36"
						}
            ],
            "path": "/group_user_update.php"
        },     
   {   
        "path":"/group_user_delete.php",
        "operations":[
        {
            "httpMethod":"GET",            
            "summary":"删除群组成员<font color=red>-->(废弃，调用环)</font>",
			 "description":"app端要监听通知,<font color=red>备注：接口要调用sdk</font>",
            "apiStatus":1,            
            "reviser":"完成",                      
            "responseClass":"void",
            "nickname":"group_user_delete",
            "updateTime":"2015/05/16 15:36",
            "revisionHighlight":true,            
            "parameters":[
            {
                "description":"管理员admin_uid",
                "paramType":"body",
                "required":true,
                "allowMultiple":false,
                "dataType":"admin_uid"
            }, 
			{
                "description":"要删除的成员uid ",
                "paramType":"body",
                "required":true,
                "allowMultiple":false,
                "dataType":"uid"
            } ,
            {
                "description":"群组|公会group_id",
                "paramType":"body",
                "required":true,
                "allowMultiple":false,
                "dataType":"group_id"
            }            
            ]
        }
        ]
    }
    ],
    "resourcePath": "/",
    "swaggerVersion": "1.2"
}