[12-Sep-2016 09:18:40 Asia/Shanghai] PHP Notice:  Undefined variable: t_array in D:\wamp2\www\yy_app\include\common.ini.php on line 58
[12-Sep-2016 09:18:40 Asia/Shanghai] PHP Stack trace:
[12-Sep-2016 09:18:40 Asia/Shanghai] PHP   1. {main}() D:\wamp2\www\yy_app\appuios_com_admin\hemo_app_user.php:0
[12-Sep-2016 09:18:40 Asia/Shanghai] PHP   2. include_once() D:\wamp2\www\yy_app\appuios_com_admin\hemo_app_user.php:3
[12-Sep-2016 09:18:40 Asia/Shanghai] PHP Notice:  Undefined variable: t_array in D:\wamp2\www\yy_app\include\common.ini.php on line 58
[12-Sep-2016 09:18:40 Asia/Shanghai] PHP Stack trace:
[12-Sep-2016 09:18:40 Asia/Shanghai] PHP   1. {main}() D:\wamp2\www\yy_app\appuios_com_admin\hemo_app_user.php:0
[12-Sep-2016 09:18:40 Asia/Shanghai] PHP   2. include_once() D:\wamp2\www\yy_app\appuios_com_admin\hemo_app_user.php:3
[12-Sep-2016 09:18:40 Asia/Shanghai] PHP Notice:  Undefined index: /yy_app/appuios_com_admin/hemo_app_user.php in D:\wamp2\www\yy_app\appuios_com_admin\checkuser.php on line 17
[12-Sep-2016 09:18:40 Asia/Shanghai] PHP Stack trace:
[12-Sep-2016 09:18:40 Asia/Shanghai] PHP   1. {main}() D:\wamp2\www\yy_app\appuios_com_admin\hemo_app_user.php:0
[12-Sep-2016 09:18:40 Asia/Shanghai] PHP   2. include_once() D:\wamp2\www\yy_app\appuios_com_admin\hemo_app_user.php:4
[12-Sep-2016 09:18:40 Asia/Shanghai] PHP Notice:  Undefined variable: pagesizes in D:\wamp2\www\yy_app\appuios_com_admin\checkuser.php on line 21
[12-Sep-2016 09:18:40 Asia/Shanghai] PHP Stack trace:
[12-Sep-2016 09:18:40 Asia/Shanghai] PHP   1. {main}() D:\wamp2\www\yy_app\appuios_com_admin\hemo_app_user.php:0
[12-Sep-2016 09:18:40 Asia/Shanghai] PHP   2. include_once() D:\wamp2\www\yy_app\appuios_com_admin\hemo_app_user.php:4
[12-Sep-2016 09:18:40 Asia/Shanghai] PHP Notice:  Undefined variable: act in D:\wamp2\www\yy_app\appuios_com_admin\hemo_app_user.php on line 21
[12-Sep-2016 09:18:40 Asia/Shanghai] PHP Stack trace:
[12-Sep-2016 09:18:40 Asia/Shanghai] PHP   1. {main}() D:\wamp2\www\yy_app\appuios_com_admin\hemo_app_user.php:0
[12-Sep-2016 09:18:40 Asia/Shanghai] PHP Notice:  Undefined variable: act in D:\wamp2\www\yy_app\appuios_com_admin\hemo_app_user.php on line 23
[12-Sep-2016 09:18:40 Asia/Shanghai] PHP Stack trace:
[12-Sep-2016 09:18:40 Asia/Shanghai] PHP   1. {main}() D:\wamp2\www\yy_app\appuios_com_admin\hemo_app_user.php:0
[12-Sep-2016 09:18:40 Asia/Shanghai] PHP Notice:  Undefined variable: keyword in D:\wamp2\www\yy_app\appuios_com_admin\hemo_app_user.php on line 27
[12-Sep-2016 09:18:40 Asia/Shanghai] PHP Stack trace:
[12-Sep-2016 09:18:40 Asia/Shanghai] PHP   1. {main}() D:\wamp2\www\yy_app\appuios_com_admin\hemo_app_user.php:0
[12-Sep-2016 09:18:40 Asia/Shanghai] PHP Notice:  Undefined variable: act in D:\wamp2\www\yy_app\appuios_com_admin\hemo_app_user.php on line 35
[12-Sep-2016 09:18:40 Asia/Shanghai] PHP Stack trace:
[12-Sep-2016 09:18:40 Asia/Shanghai] PHP   1. {main}() D:\wamp2\www\yy_app\appuios_com_admin\hemo_app_user.php:0
[12-Sep-2016 09:18:40 Asia/Shanghai] PHP Notice:  Undefined variable: act in D:\wamp2\www\yy_app\appuios_com_admin\hemo_app_user.php on line 49
[12-Sep-2016 09:18:40 Asia/Shanghai] PHP Stack trace:
[12-Sep-2016 09:18:40 Asia/Shanghai] PHP   1. {main}() D:\wamp2\www\yy_app\appuios_com_admin\hemo_app_user.php:0
[12-Sep-2016 09:18:40 Asia/Shanghai] PHP Notice:  Undefined variable: act in D:\wamp2\www\yy_app\appuios_com_admin\hemo_app_user.php on line 87
[12-Sep-2016 09:18:40 Asia/Shanghai] PHP Stack trace:
[12-Sep-2016 09:18:40 Asia/Shanghai] PHP   1. {main}() D:\wamp2\www\yy_app\appuios_com_admin\hemo_app_user.php:0
[12-Sep-2016 09:18:40 Asia/Shanghai] PHP Notice:  Undefined variable: act in D:\wamp2\www\yy_app\appuios_com_admin\hemo_app_user.php on line 103
[12-Sep-2016 09:18:40 Asia/Shanghai] PHP Stack trace:
[12-Sep-2016 09:18:40 Asia/Shanghai] PHP   1. {main}() D:\wamp2\www\yy_app\appuios_com_admin\hemo_app_user.php:0
[12-Sep-2016 09:18:40 Asia/Shanghai] PHP Notice:  Undefined variable: burl in D:\wamp2\www\yy_app\appuios_com_admin\hemo_app_user.php on line 139
[12-Sep-2016 09:18:40 Asia/Shanghai] PHP Stack trace:
[12-Sep-2016 09:18:40 Asia/Shanghai] PHP   1. {main}() D:\wamp2\www\yy_app\appuios_com_admin\hemo_app_user.php:0
[12-Sep-2016 09:18:40 Asia/Shanghai] PHP Notice:  Undefined variable: pagesizes in D:\wamp2\www\yy_app\appuios_com_admin\hemo_app_user.php on line 148
[12-Sep-2016 09:18:40 Asia/Shanghai] PHP Stack trace:
[12-Sep-2016 09:18:40 Asia/Shanghai] PHP   1. {main}() D:\wamp2\www\yy_app\appuios_com_admin\hemo_app_user.php:0
[12-Sep-2016 09:18:40 Asia/Shanghai] PHP Notice:  Undefined variable: keyword in D:\wamp2\www\yy_app\appuios_com_admin\hemo_app_user.php on line 151
[12-Sep-2016 09:18:40 Asia/Shanghai] PHP Stack trace:
[12-Sep-2016 09:18:40 Asia/Shanghai] PHP   1. {main}() D:\wamp2\www\yy_app\appuios_com_admin\hemo_app_user.php:0
[12-Sep-2016 09:18:40 Asia/Shanghai] PHP Notice:  Undefined variable: keyword in D:\wamp2\www\yy_app\appuios_com_admin\hemo_app_user.php on line 175
[12-Sep-2016 09:18:40 Asia/Shanghai] PHP Stack trace:
[12-Sep-2016 09:18:40 Asia/Shanghai] PHP   1. {main}() D:\wamp2\www\yy_app\appuios_com_admin\hemo_app_user.php:0
[12-Sep-2016 09:18:40 Asia/Shanghai] PHP Notice:  Undefined variable: keyword in D:\wamp2\www\yy_app\appuios_com_admin\hemo_app_user.php on line 187
[12-Sep-2016 09:18:40 Asia/Shanghai] PHP Stack trace:
[12-Sep-2016 09:18:40 Asia/Shanghai] PHP   1. {main}() D:\wamp2\www\yy_app\appuios_com_admin\hemo_app_user.php:0
[12-Sep-2016 09:18:40 Asia/Shanghai] PHP Notice:  Undefined variable: pagesizes in D:\wamp2\www\yy_app\appuios_com_admin\hemo_app_user.php on line 187
[12-Sep-2016 09:18:40 Asia/Shanghai] PHP Stack trace:
[12-Sep-2016 09:18:40 Asia/Shanghai] PHP   1. {main}() D:\wamp2\www\yy_app\appuios_com_admin\hemo_app_user.php:0
[12-Sep-2016 09:18:40 Asia/Shanghai] PHP Notice:  Undefined variable: acts in D:\wamp2\www\yy_app\appuios_com_admin\hemo_app_user.php on line 198
[12-Sep-2016 09:18:40 Asia/Shanghai] PHP Stack trace:
[12-Sep-2016 09:18:40 Asia/Shanghai] PHP   1. {main}() D:\wamp2\www\yy_app\appuios_com_admin\hemo_app_user.php:0
[12-Sep-2016 09:18:40 Asia/Shanghai] PHP Notice:  Undefined variable: keyword in D:\wamp2\www\yy_app\appuios_com_admin\hemo_app_user.php on line 198
[12-Sep-2016 09:18:40 Asia/Shanghai] PHP Stack trace:
[12-Sep-2016 09:18:40 Asia/Shanghai] PHP   1. {main}() D:\wamp2\www\yy_app\appuios_com_admin\hemo_app_user.php:0
[12-Sep-2016 09:18:40 Asia/Shanghai] PHP Notice:  Use of undefined constant addtime - assumed 'addtime' in D:\wamp2\www\yy_app\appuios_com_admin\hemo_app_user.php on line 202
[12-Sep-2016 09:18:40 Asia/Shanghai] PHP Stack trace:
[12-Sep-2016 09:18:40 Asia/Shanghai] PHP   1. {main}() D:\wamp2\www\yy_app\appuios_com_admin\hemo_app_user.php:0
[12-Sep-2016 09:18:40 Asia/Shanghai] PHP Notice:  A non well formed numeric value encountered in D:\wamp2\www\yy_app\appuios_com_admin\hemo_app_user.php on line 202
[12-Sep-2016 09:18:40 Asia/Shanghai] PHP Stack trace:
[12-Sep-2016 09:18:40 Asia/Shanghai] PHP   1. {main}() D:\wamp2\www\yy_app\appuios_com_admin\hemo_app_user.php:0
[12-Sep-2016 09:18:40 Asia/Shanghai] PHP   2. date() D:\wamp2\www\yy_app\appuios_com_admin\hemo_app_user.php:202
[12-Sep-2016 09:18:40 Asia/Shanghai] PHP Notice:  Use of undefined constant status - assumed 'status' in D:\wamp2\www\yy_app\appuios_com_admin\hemo_app_user.php on line 204
[12-Sep-2016 09:18:40 Asia/Shanghai] PHP Stack trace:
[12-Sep-2016 09:18:40 Asia/Shanghai] PHP   1. {main}() D:\wamp2\www\yy_app\appuios_com_admin\hemo_app_user.php:0
[12-Sep-2016 09:18:40 Asia/Shanghai] PHP Notice:  Undefined variable: acts in D:\wamp2\www\yy_app\appuios_com_admin\hemo_app_user.php on line 198
[12-Sep-2016 09:18:40 Asia/Shanghai] PHP Stack trace:
[12-Sep-2016 09:18:40 Asia/Shanghai] PHP   1. {main}() D:\wamp2\www\yy_app\appuios_com_admin\hemo_app_user.php:0
[12-Sep-2016 09:18:40 Asia/Shanghai] PHP Notice:  Undefined variable: keyword in D:\wamp2\www\yy_app\appuios_com_admin\hemo_app_user.php on line 198
[12-Sep-2016 09:18:40 Asia/Shanghai] PHP Stack trace:
[12-Sep-2016 09:18:40 Asia/Shanghai] PHP   1. {main}() D:\wamp2\www\yy_app\appuios_com_admin\hemo_app_user.php:0
[12-Sep-2016 09:18:40 Asia/Shanghai] PHP Notice:  Use of undefined constant addtime - assumed 'addtime' in D:\wamp2\www\yy_app\appuios_com_admin\hemo_app_user.php on line 202
[12-Sep-2016 09:18:40 Asia/Shanghai] PHP Stack trace:
[12-Sep-2016 09:18:40 Asia/Shanghai] PHP   1. {main}() D:\wamp2\www\yy_app\appuios_com_admin\hemo_app_user.php:0
[12-Sep-2016 09:18:40 Asia/Shanghai] PHP Notice:  A non well formed numeric value encountered in D:\wamp2\www\yy_app\appuios_com_admin\hemo_app_user.php on line 202
[12-Sep-2016 09:18:40 Asia/Shanghai] PHP Stack trace:
[12-Sep-2016 09:18:40 Asia/Shanghai] PHP   1. {main}() D:\wamp2\www\yy_app\appuios_com_admin\hemo_app_user.php:0
[12-Sep-2016 09:18:40 Asia/Shanghai] PHP   2. date() D:\wamp2\www\yy_app\appuios_com_admin\hemo_app_user.php:202
[12-Sep-2016 09:18:40 Asia/Shanghai] PHP Notice:  Use of undefined constant status - assumed 'status' in D:\wamp2\www\yy_app\appuios_com_admin\hemo_app_user.php on line 204
[12-Sep-2016 09:18:40 Asia/Shanghai] PHP Stack trace:
[12-Sep-2016 09:18:40 Asia/Shanghai] PHP   1. {main}() D:\wamp2\www\yy_app\appuios_com_admin\hemo_app_user.php:0
[12-Sep-2016 09:18:40 Asia/Shanghai] PHP Notice:  Undefined variable: act in D:\wamp2\www\yy_app\appuios_com_admin\foot.php on line 3
[12-Sep-2016 09:18:40 Asia/Shanghai] PHP Stack trace:
[12-Sep-2016 09:18:40 Asia/Shanghai] PHP   1. {main}() D:\wamp2\www\yy_app\appuios_com_admin\hemo_app_user.php:0
[12-Sep-2016 09:18:40 Asia/Shanghai] PHP   2. include_once() D:\wamp2\www\yy_app\appuios_com_admin\hemo_app_user.php:458
[12-Sep-2016 09:18:40 Asia/Shanghai] PHP Notice:  Undefined variable: istab in D:\wamp2\www\yy_app\appuios_com_admin\foot.php on line 49
[12-Sep-2016 09:18:40 Asia/Shanghai] PHP Stack trace:
[12-Sep-2016 09:18:40 Asia/Shanghai] PHP   1. {main}() D:\wamp2\www\yy_app\appuios_com_admin\hemo_app_user.php:0
[12-Sep-2016 09:18:40 Asia/Shanghai] PHP   2. include_once() D:\wamp2\www\yy_app\appuios_com_admin\hemo_app_user.php:458
[12-Sep-2016 09:18:40 Asia/Shanghai] PHP Notice:  Undefined variable: t_array in D:\wamp2\www\yy_app\include\common.ini.php on line 58
[12-Sep-2016 09:18:40 Asia/Shanghai] PHP Stack trace:
[12-Sep-2016 09:18:40 Asia/Shanghai] PHP   1. {main}() D:\wamp2\www\yy_app\appuios_com_admin\hemo_app_user.php:0
[12-Sep-2016 09:18:40 Asia/Shanghai] PHP   2. include_once() D:\wamp2\www\yy_app\appuios_com_admin\hemo_app_user.php:3
[12-Sep-2016 09:18:40 Asia/Shanghai] PHP Notice:  Undefined variable: t_array in D:\wamp2\www\yy_app\include\common.ini.php on line 58
[12-Sep-2016 09:18:40 Asia/Shanghai] PHP Stack trace:
[12-Sep-2016 09:18:40 Asia/Shanghai] PHP   1. {main}() D:\wamp2\www\yy_app\appuios_com_admin\hemo_app_user.php:0
[12-Sep-2016 09:18:40 Asia/Shanghai] PHP   2. include_once() D:\wamp2\www\yy_app\appuios_com_admin\hemo_app_user.php:3
[12-Sep-2016 09:18:40 Asia/Shanghai] PHP Notice:  Undefined index: /yy_app/appuios_com_admin/hemo_app_user.php in D:\wamp2\www\yy_app\appuios_com_admin\checkuser.php on line 17
[12-Sep-2016 09:18:40 Asia/Shanghai] PHP Stack trace:
[12-Sep-2016 09:18:40 Asia/Shanghai] PHP   1. {main}() D:\wamp2\www\yy_app\appuios_com_admin\hemo_app_user.php:0
[12-Sep-2016 09:18:40 Asia/Shanghai] PHP   2. include_once() D:\wamp2\www\yy_app\appuios_com_admin\hemo_app_user.php:4
[12-Sep-2016 09:18:40 Asia/Shanghai] PHP Notice:  Undefined variable: pagesizes in D:\wamp2\www\yy_app\appuios_com_admin\checkuser.php on line 21
[12-Sep-2016 09:18:40 Asia/Shanghai] PHP Stack trace:
[12-Sep-2016 09:18:40 Asia/Shanghai] PHP   1. {main}() D:\wamp2\www\yy_app\appuios_com_admin\hemo_app_user.php:0
[12-Sep-2016 09:18:40 Asia/Shanghai] PHP   2. include_once() D:\wamp2\www\yy_app\appuios_com_admin\hemo_app_user.php:4
[12-Sep-2016 09:18:40 Asia/Shanghai] PHP Notice:  Undefined variable: act in D:\wamp2\www\yy_app\appuios_com_admin\hemo_app_user.php on line 21
[12-Sep-2016 09:18:40 Asia/Shanghai] PHP Stack trace:
[12-Sep-2016 09:18:40 Asia/Shanghai] PHP   1. {main}() D:\wamp2\www\yy_app\appuios_com_admin\hemo_app_user.php:0
[12-Sep-2016 09:18:40 Asia/Shanghai] PHP Notice:  Undefined variable: act in D:\wamp2\www\yy_app\appuios_com_admin\hemo_app_user.php on line 23
[12-Sep-2016 09:18:40 Asia/Shanghai] PHP Stack trace:
[12-Sep-2016 09:18:40 Asia/Shanghai] PHP   1. {main}() D:\wamp2\www\yy_app\appuios_com_admin\hemo_app_user.php:0
[12-Sep-2016 09:18:40 Asia/Shanghai] PHP Notice:  Undefined variable: keyword in D:\wamp2\www\yy_app\appuios_com_admin\hemo_app_user.php on line 27
[12-Sep-2016 09:18:40 Asia/Shanghai] PHP Stack trace:
[12-Sep-2016 09:18:40 Asia/Shanghai] PHP   1. {main}() D:\wamp2\www\yy_app\appuios_com_admin\hemo_app_user.php:0
[12-Sep-2016 09:18:40 Asia/Shanghai] PHP Notice:  Undefined variable: act in D:\wamp2\www\yy_app\appuios_com_admin\hemo_app_user.php on line 35
[12-Sep-2016 09:18:40 Asia/Shanghai] PHP Stack trace:
[12-Sep-2016 09:18:40 Asia/Shanghai] PHP   1. {main}() D:\wamp2\www\yy_app\appuios_com_admin\hemo_app_user.php:0
[12-Sep-2016 09:18:40 Asia/Shanghai] PHP Notice:  Undefined variable: act in D:\wamp2\www\yy_app\appuios_com_admin\hemo_app_user.php on line 49
[12-Sep-2016 09:18:40 Asia/Shanghai] PHP Stack trace:
[12-Sep-2016 09:18:40 Asia/Shanghai] PHP   1. {main}() D:\wamp2\www\yy_app\appuios_com_admin\hemo_app_user.php:0
[12-Sep-2016 09:18:40 Asia/Shanghai] PHP Notice:  Undefined variable: act in D:\wamp2\www\yy_app\appuios_com_admin\hemo_app_user.php on line 87
[12-Sep-2016 09:18:40 Asia/Shanghai] PHP Stack trace:
[12-Sep-2016 09:18:40 Asia/Shanghai] PHP   1. {main}() D:\wamp2\www\yy_app\appuios_com_admin\hemo_app_user.php:0
[12-Sep-2016 09:18:40 Asia/Shanghai] PHP Notice:  Undefined variable: act in D:\wamp2\www\yy_app\appuios_com_admin\hemo_app_user.php on line 103
[12-Sep-2016 09:18:40 Asia/Shanghai] PHP Stack trace:
[12-Sep-2016 09:18:40 Asia/Shanghai] PHP   1. {main}() D:\wamp2\www\yy_app\appuios_com_admin\hemo_app_user.php:0
[12-Sep-2016 09:18:40 Asia/Shanghai] PHP Notice:  Undefined variable: burl in D:\wamp2\www\yy_app\appuios_com_admin\hemo_app_user.php on line 139
[12-Sep-2016 09:18:40 Asia/Shanghai] PHP Stack trace:
[12-Sep-2016 09:18:40 Asia/Shanghai] PHP   1. {main}() D:\wamp2\www\yy_app\appuios_com_admin\hemo_app_user.php:0
[12-Sep-2016 09:18:40 Asia/Shanghai] PHP Notice:  Undefined variable: pagesizes in D:\wamp2\www\yy_app\appuios_com_admin\hemo_app_user.php on line 148
[12-Sep-2016 09:18:40 Asia/Shanghai] PHP Stack trace:
[12-Sep-2016 09:18:40 Asia/Shanghai] PHP   1. {main}() D:\wamp2\www\yy_app\appuios_com_admin\hemo_app_user.php:0
[12-Sep-2016 09:18:40 Asia/Shanghai] PHP Notice:  Undefined variable: keyword in D:\wamp2\www\yy_app\appuios_com_admin\hemo_app_user.php on line 151
[12-Sep-2016 09:18:40 Asia/Shanghai] PHP Stack trace:
[12-Sep-2016 09:18:40 Asia/Shanghai] PHP   1. {main}() D:\wamp2\www\yy_app\appuios_com_admin\hemo_app_user.php:0
[12-Sep-2016 09:18:40 Asia/Shanghai] PHP Notice:  Undefined variable: keyword in D:\wamp2\www\yy_app\appuios_com_admin\hemo_app_user.php on line 175
[12-Sep-2016 09:18:40 Asia/Shanghai] PHP Stack trace:
[12-Sep-2016 09:18:40 Asia/Shanghai] PHP   1. {main}() D:\wamp2\www\yy_app\appuios_com_admin\hemo_app_user.php:0
[12-Sep-2016 09:18:40 Asia/Shanghai] PHP Notice:  Undefined variable: keyword in D:\wamp2\www\yy_app\appuios_com_admin\hemo_app_user.php on line 187
[12-Sep-2016 09:18:40 Asia/Shanghai] PHP Stack trace:
[12-Sep-2016 09:18:40 Asia/Shanghai] PHP   1. {main}() D:\wamp2\www\yy_app\appuios_com_admin\hemo_app_user.php:0
[12-Sep-2016 09:18:40 Asia/Shanghai] PHP Notice:  Undefined variable: pagesizes in D:\wamp2\www\yy_app\appuios_com_admin\hemo_app_user.php on line 187
[12-Sep-2016 09:18:40 Asia/Shanghai] PHP Stack trace:
[12-Sep-2016 09:18:40 Asia/Shanghai] PHP   1. {main}() D:\wamp2\www\yy_app\appuios_com_admin\hemo_app_user.php:0
[12-Sep-2016 09:18:40 Asia/Shanghai] PHP Notice:  Undefined variable: acts in D:\wamp2\www\yy_app\appuios_com_admin\hemo_app_user.php on line 198
[12-Sep-2016 09:18:40 Asia/Shanghai] PHP Stack trace:
[12-Sep-2016 09:18:40 Asia/Shanghai] PHP   1. {main}() D:\wamp2\www\yy_app\appuios_com_admin\hemo_app_user.php:0
[12-Sep-2016 09:18:40 Asia/Shanghai] PHP Notice:  Undefined variable: keyword in D:\wamp2\www\yy_app\appuios_com_admin\hemo_app_user.php on line 198
[12-Sep-2016 09:18:40 Asia/Shanghai] PHP Stack trace:
[12-Sep-2016 09:18:40 Asia/Shanghai] PHP   1. {main}() D:\wamp2\www\yy_app\appuios_com_admin\hemo_app_user.php:0
[12-Sep-2016 09:18:40 Asia/Shanghai] PHP Notice:  Use of undefined constant addtime - assumed 'addtime' in D:\wamp2\www\yy_app\appuios_com_admin\hemo_app_user.php on line 202
[12-Sep-2016 09:18:40 Asia/Shanghai] PHP Stack trace:
[12-Sep-2016 09:18:40 Asia/Shanghai] PHP   1. {main}() D:\wamp2\www\yy_app\appuios_com_admin\hemo_app_user.php:0
[12-Sep-2016 09:18:40 Asia/Shanghai] PHP Notice:  A non well formed numeric value encountered in D:\wamp2\www\yy_app\appuios_com_admin\hemo_app_user.php on line 202
[12-Sep-2016 09:18:40 Asia/Shanghai] PHP Stack trace:
[12-Sep-2016 09:18:40 Asia/Shanghai] PHP   1. {main}() D:\wamp2\www\yy_app\appuios_com_admin\hemo_app_user.php:0
[12-Sep-2016 09:18:40 Asia/Shanghai] PHP   2. date() D:\wamp2\www\yy_app\appuios_com_admin\hemo_app_user.php:202
[12-Sep-2016 09:18:40 Asia/Shanghai] PHP Notice:  Use of undefined constant status - assumed 'status' in D:\wamp2\www\yy_app\appuios_com_admin\hemo_app_user.php on line 204
[12-Sep-2016 09:18:40 Asia/Shanghai] PHP Stack trace:
[12-Sep-2016 09:18:40 Asia/Shanghai] PHP   1. {main}() D:\wamp2\www\yy_app\appuios_com_admin\hemo_app_user.php:0
[12-Sep-2016 09:18:40 Asia/Shanghai] PHP Notice:  Undefined variable: acts in D:\wamp2\www\yy_app\appuios_com_admin\hemo_app_user.php on line 198
[12-Sep-2016 09:18:40 Asia/Shanghai] PHP Stack trace:
[12-Sep-2016 09:18:40 Asia/Shanghai] PHP   1. {main}() D:\wamp2\www\yy_app\appuios_com_admin\hemo_app_user.php:0
[12-Sep-2016 09:18:40 Asia/Shanghai] PHP Notice:  Undefined variable: keyword in D:\wamp2\www\yy_app\appuios_com_admin\hemo_app_user.php on line 198
[12-Sep-2016 09:18:40 Asia/Shanghai] PHP Stack trace:
[12-Sep-2016 09:18:40 Asia/Shanghai] PHP   1. {main}() D:\wamp2\www\yy_app\appuios_com_admin\hemo_app_user.php:0
[12-Sep-2016 09:18:40 Asia/Shanghai] PHP Notice:  Use of undefined constant addtime - assumed 'addtime' in D:\wamp2\www\yy_app\appuios_com_admin\hemo_app_user.php on line 202
[12-Sep-2016 09:18:40 Asia/Shanghai] PHP Stack trace:
[12-Sep-2016 09:18:40 Asia/Shanghai] PHP   1. {main}() D:\wamp2\www\yy_app\appuios_com_admin\hemo_app_user.php:0
[12-Sep-2016 09:18:40 Asia/Shanghai] PHP Notice:  A non well formed numeric value encountered in D:\wamp2\www\yy_app\appuios_com_admin\hemo_app_user.php on line 202
[12-Sep-2016 09:18:40 Asia/Shanghai] PHP Stack trace:
[12-Sep-2016 09:18:40 Asia/Shanghai] PHP   1. {main}() D:\wamp2\www\yy_app\appuios_com_admin\hemo_app_user.php:0
[12-Sep-2016 09:18:40 Asia/Shanghai] PHP   2. date() D:\wamp2\www\yy_app\appuios_com_admin\hemo_app_user.php:202
[12-Sep-2016 09:18:40 Asia/Shanghai] PHP Notice:  Use of undefined constant status - assumed 'status' in D:\wamp2\www\yy_app\appuios_com_admin\hemo_app_user.php on line 204
[12-Sep-2016 09:18:40 Asia/Shanghai] PHP Stack trace:
[12-Sep-2016 09:18:40 Asia/Shanghai] PHP   1. {main}() D:\wamp2\www\yy_app\appuios_com_admin\hemo_app_user.php:0
[12-Sep-2016 09:18:40 Asia/Shanghai] PHP Notice:  Undefined variable: act in D:\wamp2\www\yy_app\appuios_com_admin\foot.php on line 3
[12-Sep-2016 09:18:40 Asia/Shanghai] PHP Stack trace:
[12-Sep-2016 09:18:40 Asia/Shanghai] PHP   1. {main}() D:\wamp2\www\yy_app\appuios_com_admin\hemo_app_user.php:0
[12-Sep-2016 09:18:40 Asia/Shanghai] PHP   2. include_once() D:\wamp2\www\yy_app\appuios_com_admin\hemo_app_user.php:458
[12-Sep-2016 09:18:40 Asia/Shanghai] PHP Notice:  Undefined variable: istab in D:\wamp2\www\yy_app\appuios_com_admin\foot.php on line 49
[12-Sep-2016 09:18:40 Asia/Shanghai] PHP Stack trace:
[12-Sep-2016 09:18:40 Asia/Shanghai] PHP   1. {main}() D:\wamp2\www\yy_app\appuios_com_admin\hemo_app_user.php:0
[12-Sep-2016 09:18:40 Asia/Shanghai] PHP   2. include_once() D:\wamp2\www\yy_app\appuios_com_admin\hemo_app_user.php:458
[12-Sep-2016 09:18:41 Asia/Shanghai] PHP Notice:  Undefined variable: t_array in D:\wamp2\www\yy_app\include\common.ini.php on line 58
[12-Sep-2016 09:18:41 Asia/Shanghai] PHP Stack trace:
[12-Sep-2016 09:18:41 Asia/Shanghai] PHP   1. {main}() D:\wamp2\www\yy_app\appuios_com_admin\hemo_app_user.php:0
[12-Sep-2016 09:18:41 Asia/Shanghai] PHP   2. include_once() D:\wamp2\www\yy_app\appuios_com_admin\hemo_app_user.php:3
[12-Sep-2016 09:18:41 Asia/Shanghai] PHP Notice:  Undefined variable: t_array in D:\wamp2\www\yy_app\include\common.ini.php on line 58
[12-Sep-2016 09:18:41 Asia/Shanghai] PHP Stack trace:
[12-Sep-2016 09:18:41 Asia/Shanghai] PHP   1. {main}() D:\wamp2\www\yy_app\appuios_com_admin\hemo_app_user.php:0
[12-Sep-2016 09:18:41 Asia/Shanghai] PHP   2. include_once() D:\wamp2\www\yy_app\appuios_com_admin\hemo_app_user.php:3
[12-Sep-2016 09:18:41 Asia/Shanghai] PHP Notice:  Undefined index: /yy_app/appuios_com_admin/hemo_app_user.php in D:\wamp2\www\yy_app\appuios_com_admin\checkuser.php on line 17
[12-Sep-2016 09:18:41 Asia/Shanghai] PHP Stack trace:
[12-Sep-2016 09:18:41 Asia/Shanghai] PHP   1. {main}() D:\wamp2\www\yy_app\appuios_com_admin\hemo_app_user.php:0
[12-Sep-2016 09:18:41 Asia/Shanghai] PHP   2. include_once() D:\wamp2\www\yy_app\appuios_com_admin\hemo_app_user.php:4
[12-Sep-2016 09:18:41 Asia/Shanghai] PHP Notice:  Undefined variable: pagesizes in D:\wamp2\www\yy_app\appuios_com_admin\checkuser.php on line 21
[12-Sep-2016 09:18:41 Asia/Shanghai] PHP Stack trace:
[12-Sep-2016 09:18:41 Asia/Shanghai] PHP   1. {main}() D:\wamp2\www\yy_app\appuios_com_admin\hemo_app_user.php:0
[12-Sep-2016 09:18:41 Asia/Shanghai] PHP   2. include_once() D:\wamp2\www\yy_app\appuios_com_admin\hemo_app_user.php:4
[12-Sep-2016 09:18:41 Asia/Shanghai] PHP Notice:  Undefined variable: act in D:\wamp2\www\yy_app\appuios_com_admin\hemo_app_user.php on line 21
[12-Sep-2016 09:18:41 Asia/Shanghai] PHP Stack trace:
[12-Sep-2016 09:18:41 Asia/Shanghai] PHP   1. {main}() D:\wamp2\www\yy_app\appuios_com_admin\hemo_app_user.php:0
[12-Sep-2016 09:18:41 Asia/Shanghai] PHP Notice:  Undefined variable: act in D:\wamp2\www\yy_app\appuios_com_admin\hemo_app_user.php on line 23
[12-Sep-2016 09:18:41 Asia/Shanghai] PHP Stack trace:
[12-Sep-2016 09:18:41 Asia/Shanghai] PHP   1. {main}() D:\wamp2\www\yy_app\appuios_com_admin\hemo_app_user.php:0
[12-Sep-2016 09:18:41 Asia/Shanghai] PHP Notice:  Undefined variable: keyword in D:\wamp2\www\yy_app\appuios_com_admin\hemo_app_user.php on line 27
[12-Sep-2016 09:18:41 Asia/Shanghai] PHP Stack trace:
[12-Sep-2016 09:18:41 Asia/Shanghai] PHP   1. {main}() D:\wamp2\www\yy_app\appuios_com_admin\hemo_app_user.php:0
[12-Sep-2016 09:18:41 Asia/Shanghai] PHP Notice:  Undefined variable: act in D:\wamp2\www\yy_app\appuios_com_admin\hemo_app_user.php on line 35
[12-Sep-2016 09:18:41 Asia/Shanghai] PHP Stack trace:
[12-Sep-2016 09:18:41 Asia/Shanghai] PHP   1. {main}() D:\wamp2\www\yy_app\appuios_com_admin\hemo_app_user.php:0
[12-Sep-2016 09:18:41 Asia/Shanghai] PHP Notice:  Undefined variable: act in D:\wamp2\www\yy_app\appuios_com_admin\hemo_app_user.php on line 49
[12-Sep-2016 09:18:41 Asia/Shanghai] PHP Stack trace:
[12-Sep-2016 09:18:41 Asia/Shanghai] PHP   1. {main}() D:\wamp2\www\yy_app\appuios_com_admin\hemo_app_user.php:0
[12-Sep-2016 09:18:41 Asia/Shanghai] PHP Notice:  Undefined variable: act in D:\wamp2\www\yy_app\appuios_com_admin\hemo_app_user.php on line 87
[12-Sep-2016 09:18:41 Asia/Shanghai] PHP Stack trace:
[12-Sep-2016 09:18:41 Asia/Shanghai] PHP   1. {main}() D:\wamp2\www\yy_app\appuios_com_admin\hemo_app_user.php:0
[12-Sep-2016 09:18:41 Asia/Shanghai] PHP Notice:  Undefined variable: act in D:\wamp2\www\yy_app\appuios_com_admin\hemo_app_user.php on line 103
[12-Sep-2016 09:18:41 Asia/Shanghai] PHP Stack trace:
[12-Sep-2016 09:18:41 Asia/Shanghai] PHP   1. {main}() D:\wamp2\www\yy_app\appuios_com_admin\hemo_app_user.php:0
[12-Sep-2016 09:18:41 Asia/Shanghai] PHP Notice:  Undefined variable: burl in D:\wamp2\www\yy_app\appuios_com_admin\hemo_app_user.php on line 139
[12-Sep-2016 09:18:41 Asia/Shanghai] PHP Stack trace:
[12-Sep-2016 09:18:41 Asia/Shanghai] PHP   1. {main}() D:\wamp2\www\yy_app\appuios_com_admin\hemo_app_user.php:0
[12-Sep-2016 09:18:41 Asia/Shanghai] PHP Notice:  Undefined variable: pagesizes in D:\wamp2\www\yy_app\appuios_com_admin\hemo_app_user.php on line 148
[12-Sep-2016 09:18:41 Asia/Shanghai] PHP Stack trace:
[12-Sep-2016 09:18:41 Asia/Shanghai] PHP   1. {main}() D:\wamp2\www\yy_app\appuios_com_admin\hemo_app_user.php:0
[12-Sep-2016 09:18:41 Asia/Shanghai] PHP Notice:  Undefined variable: keyword in D:\wamp2\www\yy_app\appuios_com_admin\hemo_app_user.php on line 151
[12-Sep-2016 09:18:41 Asia/Shanghai] PHP Stack trace:
[12-Sep-2016 09:18:41 Asia/Shanghai] PHP   1. {main}() D:\wamp2\www\yy_app\appuios_com_admin\hemo_app_user.php:0
[12-Sep-2016 09:18:41 Asia/Shanghai] PHP Notice:  Undefined variable: keyword in D:\wamp2\www\yy_app\appuios_com_admin\hemo_app_user.php on line 175
[12-Sep-2016 09:18:41 Asia/Shanghai] PHP Stack trace:
[12-Sep-2016 09:18:41 Asia/Shanghai] PHP   1. {main}() D:\wamp2\www\yy_app\appuios_com_admin\hemo_app_user.php:0
[12-Sep-2016 09:18:41 Asia/Shanghai] PHP Notice:  Undefined variable: keyword in D:\wamp2\www\yy_app\appuios_com_admin\hemo_app_user.php on line 187
[12-Sep-2016 09:18:41 Asia/Shanghai] PHP Stack trace:
[12-Sep-2016 09:18:41 Asia/Shanghai] PHP   1. {main}() D:\wamp2\www\yy_app\appuios_com_admin\hemo_app_user.php:0
[12-Sep-2016 09:18:41 Asia/Shanghai] PHP Notice:  Undefined variable: pagesizes in D:\wamp2\www\yy_app\appuios_com_admin\hemo_app_user.php on line 187
[12-Sep-2016 09:18:41 Asia/Shanghai] PHP Stack trace:
[12-Sep-2016 09:18:41 Asia/Shanghai] PHP   1. {main}() D:\wamp2\www\yy_app\appuios_com_admin\hemo_app_user.php:0
[12-Sep-2016 09:18:41 Asia/Shanghai] PHP Notice:  Undefined variable: acts in D:\wamp2\www\yy_app\appuios_com_admin\hemo_app_user.php on line 198
[12-Sep-2016 09:18:41 Asia/Shanghai] PHP Stack trace:
[12-Sep-2016 09:18:41 Asia/Shanghai] PHP   1. {main}() D:\wamp2\www\yy_app\appuios_com_admin\hemo_app_user.php:0
[12-Sep-2016 09:18:41 Asia/Shanghai] PHP Notice:  Undefined variable: keyword in D:\wamp2\www\yy_app\appuios_com_admin\hemo_app_user.php on line 198
[12-Sep-2016 09:18:41 Asia/Shanghai] PHP Stack trace:
[12-Sep-2016 09:18:41 Asia/Shanghai] PHP   1. {main}() D:\wamp2\www\yy_app\appuios_com_admin\hemo_app_user.php:0
[12-Sep-2016 09:18:41 Asia/Shanghai] PHP Notice:  Use of undefined constant addtime - assumed 'addtime' in D:\wamp2\www\yy_app\appuios_com_admin\hemo_app_user.php on line 202
[12-Sep-2016 09:18:41 Asia/Shanghai] PHP Stack trace:
[12-Sep-2016 09:18:41 Asia/Shanghai] PHP   1. {main}() D:\wamp2\www\yy_app\appuios_com_admin\hemo_app_user.php:0
[12-Sep-2016 09:18:41 Asia/Shanghai] PHP Notice:  A non well formed numeric value encountered in D:\wamp2\www\yy_app\appuios_com_admin\hemo_app_user.php on line 202
[12-Sep-2016 09:18:41 Asia/Shanghai] PHP Stack trace:
[12-Sep-2016 09:18:41 Asia/Shanghai] PHP   1. {main}() D:\wamp2\www\yy_app\appuios_com_admin\hemo_app_user.php:0
[12-Sep-2016 09:18:41 Asia/Shanghai] PHP   2. date() D:\wamp2\www\yy_app\appuios_com_admin\hemo_app_user.php:202
[12-Sep-2016 09:18:41 Asia/Shanghai] PHP Notice:  Use of undefined constant status - assumed 'status' in D:\wamp2\www\yy_app\appuios_com_admin\hemo_app_user.php on line 204
[12-Sep-2016 09:18:41 Asia/Shanghai] PHP Stack trace:
[12-Sep-2016 09:18:41 Asia/Shanghai] PHP   1. {main}() D:\wamp2\www\yy_app\appuios_com_admin\hemo_app_user.php:0
[12-Sep-2016 09:18:42 Asia/Shanghai] PHP Notice:  Undefined variable: acts in D:\wamp2\www\yy_app\appuios_com_admin\hemo_app_user.php on line 198
[12-Sep-2016 09:18:42 Asia/Shanghai] PHP Stack trace:
[12-Sep-2016 09:18:42 Asia/Shanghai] PHP   1. {main}() D:\wamp2\www\yy_app\appuios_com_admin\hemo_app_user.php:0
[12-Sep-2016 09:18:42 Asia/Shanghai] PHP Notice:  Undefined variable: keyword in D:\wamp2\www\yy_app\appuios_com_admin\hemo_app_user.php on line 198
[12-Sep-2016 09:18:42 Asia/Shanghai] PHP Stack trace:
[12-Sep-2016 09:18:42 Asia/Shanghai] PHP   1. {main}() D:\wamp2\www\yy_app\appuios_com_admin\hemo_app_user.php:0
[12-Sep-2016 09:18:42 Asia/Shanghai] PHP Notice:  Use of undefined constant addtime - assumed 'addtime' in D:\wamp2\www\yy_app\appuios_com_admin\hemo_app_user.php on line 202
[12-Sep-2016 09:18:42 Asia/Shanghai] PHP Stack trace:
[12-Sep-2016 09:18:42 Asia/Shanghai] PHP   1. {main}() D:\wamp2\www\yy_app\appuios_com_admin\hemo_app_user.php:0
[12-Sep-2016 09:18:42 Asia/Shanghai] PHP Notice:  A non well formed numeric value encountered in D:\wamp2\www\yy_app\appuios_com_admin\hemo_app_user.php on line 202
[12-Sep-2016 09:18:42 Asia/Shanghai] PHP Stack trace:
[12-Sep-2016 09:18:42 Asia/Shanghai] PHP   1. {main}() D:\wamp2\www\yy_app\appuios_com_admin\hemo_app_user.php:0
[12-Sep-2016 09:18:42 Asia/Shanghai] PHP   2. date() D:\wamp2\www\yy_app\appuios_com_admin\hemo_app_user.php:202
[12-Sep-2016 09:18:42 Asia/Shanghai] PHP Notice:  Use of undefined constant status - assumed 'status' in D:\wamp2\www\yy_app\appuios_com_admin\hemo_app_user.php on line 204
[12-Sep-2016 09:18:42 Asia/Shanghai] PHP Stack trace:
[12-Sep-2016 09:18:42 Asia/Shanghai] PHP   1. {main}() D:\wamp2\www\yy_app\appuios_com_admin\hemo_app_user.php:0
[12-Sep-2016 09:18:42 Asia/Shanghai] PHP Notice:  Undefined variable: act in D:\wamp2\www\yy_app\appuios_com_admin\foot.php on line 3
[12-Sep-2016 09:18:42 Asia/Shanghai] PHP Stack trace:
[12-Sep-2016 09:18:42 Asia/Shanghai] PHP   1. {main}() D:\wamp2\www\yy_app\appuios_com_admin\hemo_app_user.php:0
[12-Sep-2016 09:18:42 Asia/Shanghai] PHP   2. include_once() D:\wamp2\www\yy_app\appuios_com_admin\hemo_app_user.php:458
[12-Sep-2016 09:18:42 Asia/Shanghai] PHP Notice:  Undefined variable: istab in D:\wamp2\www\yy_app\appuios_com_admin\foot.php on line 49
[12-Sep-2016 09:18:42 Asia/Shanghai] PHP Stack trace:
[12-Sep-2016 09:18:42 Asia/Shanghai] PHP   1. {main}() D:\wamp2\www\yy_app\appuios_com_admin\hemo_app_user.php:0
[12-Sep-2016 09:18:42 Asia/Shanghai] PHP   2. include_once() D:\wamp2\www\yy_app\appuios_com_admin\hemo_app_user.php:458
