{
    "apiVersion":"0.5",
    "swaggerVersion":"1.2",
    "apis":[
	{
        "path":"/json_users.{format}",
        "description":"用户"
    },{
        "path":"/json_groups.{format}",
        "description":"群组"
    },{
        "path":"/json_publishs.{format}",
        "description":"发布|评论文章"
    },{
        "path":"/json_other.{format}",
        "description":"其他单独处理"
    }                
    ]
}