{
    "apiVersion": "0.5",
    "apis": [
				{	  "operations": [
                 {
                    "apiStatus": 2,
                    "httpMethod": "POST",
                    "nickname": "user_phone_exist",
                    "parameters": [
                        {
                            "allowMultiple": false,
                            "dataType": "user_getcode_from_email",
                            "description": "邮箱",
                            "paramType": "body",
                            "required": true
                        }
                    ],
                    "responseClass": "void",
                    "reviser": "完成",
                    "revisionDesc": "修改于2015/11/16 15:36",
                    "revisionHighlight": true,
                    "summary": "邮箱验证码",
                    "updateTime": "2015/11/16 15:36"
                }
            ],
            "path": "/user_getcode_from_email.php"
        },{	  "operations": [
                 {
                    "apiStatus": 2,
                    "httpMethod": "POST",
                    "nickname": "user_login",
                    "parameters": [
                        {
                            "allowMultiple": false,
                            "dataType": "phone",
                            "description": "手机号码",
                            "paramType": "body",
                            "required": true
                        },{
                            "allowMultiple": false,
                            "dataType": "login_type",
                            "description": "登录类型:1为翻译端，2为客户端  ",
                            "paramType": "body",
                            "required": true
                        },{
                            "allowMultiple": false,
                            "dataType": "type",
                            "description": "区号：+86,+98伊朗，+971迪拜",
                            "paramType": "body",
                            "required": true
                        },
						 {
                            "allowMultiple": false,
                            "dataType": "password",
                            "description": "密码",
                            "paramType": "body",
                            "required": true
                        }
                    ],
                    "responseClass": "void",
                    "reviser": "完成",
                    "revisionDesc": "修改于2015/11/16 15:36",
                    "revisionHighlight": true,
                    "summary": "用户登录",
                    "updateTime": "2015/11/16 15:36"
                }
            ],
            "path": "/user_login.php"
        },{	  "operations": [
                 {
                    "apiStatus": 2,
                    "httpMethod": "POST",
                    "nickname": "user_phone_exist",
                    "parameters": [
                        {
                            "allowMultiple": false,
                            "dataType": "phone",
                            "description": "手机号码",
                            "paramType": "body",
                            "required": true
                        },{
                            "allowMultiple": false,
                            "dataType": "login_type",
                            "description": "登录类型:1为翻译端，2为客户端  ",
                            "paramType": "body",
                            "required": true
                        },{
                            "allowMultiple": false,
                            "dataType": "type",
                            "description": "区号：+86,+98伊朗，+971迪拜",
                            "paramType": "body",
                            "required": true
                        },{
                            "allowMultiple": false,
                            "dataType": "forwhat",
                            "description": "用途 1：注册 2：忘记密码",
                            "paramType": "body",
                            "required": true
                        }
                    ],
                    "responseClass": "void",
                    "reviser": "完成",
                    "revisionDesc": "修改于2015/11/16 15:36",
                    "revisionHighlight": true,
                    "summary": "判断手机是否存在",
                    "updateTime": "2015/11/16 15:36"
                }
            ],
            "path": "/user_phone_exist.php"
        },{	  "operations": [{
                    "apiStatus": 2,
                    "httpMethod": "POST",
                    "nickname": "user_create",
                    "parameters": [
                        {
                            "allowMultiple": false,
                            "dataType": "phone",
                            "description": "手机号码",
                            "paramType": "body",
                            "required": true
                        },{
                            "allowMultiple": false,
                            "dataType": "login_type",
                            "description": "注册类型:1为翻译端，2为客户端",
                            "paramType": "body",
                            "required": true
                        },{
                            "allowMultiple": false,
                            "dataType": "type",
                            "description": "区号：+86,+98伊朗，+971迪拜",
                            "paramType": "body",
                            "required": true
                        },
						 {
                            "allowMultiple": false,
                            "dataType": "password",
                            "description": "密码",
                            "paramType": "body",
                            "required": true
                        },{
                            "allowMultiple": false,
                            "dataType": "kehu_phone",
                            "description": "推荐人手机",
                            "paramType": "body",
                            "required": true
                        },{
                            "allowMultiple": false,
                            "dataType": "kehu_number",
                            "description": "推荐人编号",
                            "paramType": "body",
                            "required": true
                        }
                    ],
                    "responseClass": "void",
                    "reviser": "完成",
                    "revisionDesc": "修改于2015/11/16 15:36",
                    "revisionHighlight": true,
                    "summary": "用户注册（短信验证码和平台对接）",
                    "updateTime": "2015/11/16 15:36"
                }
            ],
            "path": "/user_create.php"
        },{	  "operations": [
                {
                    "apiStatus": 2,
                    "httpMethod": "POST",
                    "nickname": "user_password",
                    "parameters": [
                        {
                            "allowMultiple": false,
                            "dataType": "phone",
                            "description": "用户手机|备用手机",
                            "paramType": "body",
                            "required": true
                        },{
                            "allowMultiple": false,
                            "dataType": "login_type",
                            "description": "类型:1为翻译端，2为客户端",
                            "paramType": "body",
                            "required": true
                        },{
                            "allowMultiple": false,
                            "dataType": "type",
                            "description": "区号：+86,+98伊朗，+971迪拜",
                            "paramType": "body",
                            "required": true
                        },
						 {
                            "allowMultiple": false,
                            "dataType": "new_password",
                            "description": "新密码",
                            "paramType": "body",
                            "required": true
                        },
						 {
                            "allowMultiple": false,
                            "dataType": "login_type",
                           "description": "类型:1为翻译端，2为客户端",
                            "paramType": "body",
                            "required": true
                        }
                    ],
                    "responseClass": "void",
                    "reviser": "完成",
                    "revisionDesc": "修改于2015/11/16 15:36",
                    "revisionHighlight": true,
                    "summary": "找回密码（短信验证码和平台对接）",
                    "updateTime": "2015/11/16 15:36"
                }
            ],
            "path": "/user_password.php"
        },{
					"operations": [
						{
							"apiStatus": 1,
							"httpMethod": "POST",
							"nickname": "user_details_and_isfriend",
							"parameters": [
								{
									"allowMultiple": false,
									"dataType": "uid",
									"description": "自己的Uid",
									"paramType": "body",
									"required": true
								},{
									"allowMultiple": false,
									"dataType": "check_uid",
									"description": "被查看的用户check_uid",
									"paramType": "body",
									"required": true
								}
							],
							"responseClass": "void",
							"reviser": "完成",
							"revisionDesc": "修改于2015/05/10 15:36",
							"revisionHighlight": true,
							"summary": "查看他人的详情并且判断是否是好友",
							 "description":"<font color=blue>接口优化，这个接口用来获取朋友的详情，非自己的详情</font>",
							"updateTime": "2015/05/10 15:36"
						}
            ],
            "path": "/user_details_and_isfriend.php"
        },{
					"operations": [
						{
							"apiStatus": 1,
							"httpMethod": "POST",
							"nickname": "user_last_images",
							"parameters": [
								{
									"allowMultiple": false,
									"dataType": "uid",
									"description": "用户Uid",
									"paramType": "body",
									"required": true
								}
							],
							"responseClass": "void",
							"reviser": "完成",
							"revisionDesc": "修改于2015/05/10 15:36",
							"revisionHighlight": true,
							"summary": "查看用户详情中的相册和个人最新活动和最新Yasa数",
							 "description":"（登录用户的详情用这个和下面两个接口来做，<font color=red>其他数据，获取本地登录时的数据</font>）<br>做多这个接口，因为速度问题,模仿微信接口的优化方式来做的",
							"updateTime": "2015/05/10 15:36"
						}
            ],
            "path": "/user_last_images.php"
        },{
					"operations": [
						{
							"apiStatus": 1,
							"httpMethod": "POST",
							"nickname": "user_details_count",
							"parameters": [
								{
									"allowMultiple": false,
									"dataType": "uid",
									"description": "用户Uid",
									"paramType": "body",
									"required": true
								}
							],
							"responseClass": "void",
							"reviser": "完成",
							"revisionDesc": "修改于2015/05/10 15:36",
							"revisionHighlight": true,
							"summary": "查看用户好友数、群组数、公会数",
							 "description":"做多这个接口，因为他耗时很大",
							"updateTime": "2015/05/10 15:36"
						}
            ],
            "path": "/user_details_count.php"
        },{
					"operations": [
						{
							"apiStatus": 1,
							
							"httpMethod": "POST",
							"nickname": "user_update",
							"parameters": [
								{
									"allowMultiple": false,
									"dataType": "uid",
									"description": "用户Uid",
									"paramType": "body",
									"required": true
								},{
									"allowMultiple": false,
									"dataType": "username",
									"description": "用户名（手机号码）",
									"paramType": "body",
									"required": true
								},
								{
									"allowMultiple": false,
									"dataType": "nickname",
									"description": "昵称",
									"paramType": "body",
									"required": true
								},{
									"allowMultiple": false,
									"dataType": "logo",
									"description": "头像",
									"paramType": "body",
									"required": true
								},
								{
									"allowMultiple": false,
									"dataType": "logo_original",
									"description": "头像原图480x480/640x640",
									"paramType": "body",
									"required": true
								}
								,{
									"allowMultiple": false,
									"dataType": "phone",
									"description": "手机",
									"paramType": "body",
									"required": true
								},
								{
									"allowMultiple": false,
									"dataType": "sex",
									"description": "性别",
									"paramType": "body",
									"required": true
								},
								{
									"allowMultiple": false,
									"dataType": "address",
									"description": "地址",
									"paramType": "body",
									"required": true
								}
								,
								{
									"allowMultiple": false,
									"dataType": "province",
									"description": "省",
									"paramType": "body",
									"required": true
								},
								{
									"allowMultiple": false,
									"dataType": "city",
									"description": "市",
									"paramType": "body",
									"required": true
								},
								{
									"allowMultiple": false,
									"dataType": "signature",
									"description": "签名",
									"paramType": "body",
									"required": true
								}
								,
								{
									"allowMultiple": false,
									"dataType": "deviceid",
									"description": "设备id",
									"paramType": "body",
									"required": true
								},
								{
									"allowMultiple": false,
									"dataType": "devicetype",
									"description": "设备类型",
									"paramType": "body",
									"required": true
								},
								{
									"allowMultiple": false,
									"dataType": "identify",
									"description": "身份证",
									"paramType": "body",
									"required": true
								},
								{
									"allowMultiple": false,
									"dataType": "latitude",
									"description": "经度",
									"paramType": "body",
									"required": true
								},
								{
									"allowMultiple": false,
									"dataType": "longitude",
									"description": "纬度",
									"paramType": "body",
									"required": true
								},
								{
									"allowMultiple": false,
									"dataType": "birday",
									"description": "生日时间戳",
									"paramType": "body",
									"required": true
								},
								{
									"allowMultiple": false,
									"dataType": "new_password",
									"description": "新密码<br>（<font color=red>修改密码</font>时要传：uid 、old_password、new_password）",
									"paramType": "body",
									"required": true
								},
								{
									"allowMultiple": false,
									"dataType": "old_password",
									"description": "旧密码",
									"paramType": "body",
									"required": true
								}
								
							],
							"responseClass": "void",
							"reviser": "完成",
							"revisionDesc": "修改于2015/04/16 15:36",
							"revisionHighlight": true,
							"summary": "更新用户信息",
							"updateTime": "2015/04/16 15:36"
						}
            ],
            "path": "/user_update.php"
        },{
					"operations": [
						{
							"apiStatus": 1,
							"httpMethod": "POST", 
							"nickname": "user_nearby",
							"parameters": [
								{
									"allowMultiple": false,
									"dataType": "uid",
									"description": "用户Uid",
									"paramType": "body",
									"required": true
								},{
									"allowMultiple": false,
									"dataType": "caipan_or_not",
									"description": "裁判填1，其他为空",
									"paramType": "body",
									"required": false
								},{
									"allowMultiple": false,
									"dataType": "province",
									"description": "省",
									"paramType": "body",
									"required": false
								},{
									"allowMultiple": false,
									"dataType": "city",
									"description": "市",
									"paramType": "body",
									"required": false
								}
								
								
								,{
									"allowMultiple": false,
									"dataType": "latitude",
									"description": "latitude",
									"paramType": "body",
									"required": false
								},
								{
									"allowMultiple": false,
									"dataType": "longitude",
									"description": "longitude",
									"paramType": "body",
									"required": false
								},
								{
									"allowMultiple": false,
									"dataType": "cursor",
									"description": "游标,每次调用都会返回'新游标'用于分页 <br><br><font color=red>开始为0 相当于以前的start，优化了分页</font>",
									"paramType": "body",
									"required": true
								},
								{
									"allowMultiple": false,
									"dataType": "limit",
									"description": "limit 默认为10",
									"paramType": "body",
									"required": true
								}
								
								
							],
							"responseClass": "void",
							"reviser": "完成",
							"revisionDesc": "修改于2014/11/16 15:36",
							"revisionHighlight": true,
							"summary": "获取附近人列表",
							"updateTime": "2014/11/16 15:36"
						}
            ],
            "path": "/user_nearby.php"
        },{
					"operations": [
						{
							"apiStatus": 1,
							"httpMethod": "POST", 
							"nickname": "user_hot_list",
							"parameters": [
								{
									"allowMultiple": false,
									"dataType": "limit",
									"description": "limit 默认为30",
									"paramType": "body",
									"required": true
								}
								
								
							],
							"responseClass": "void",
							"reviser": "完成",
							"revisionDesc": "修改于2014/11/16 15:36",
							"revisionHighlight": true,
							"summary": "用户名人堂（一次性返回）",
							"updateTime": "2014/11/16 15:36"
						}
            ],
            "path": "/user_hot_list.php"
        },{
					"operations": [
						{
							"apiStatus": 1,
							"httpMethod": "POST",
							"nickname": "user_friend_list",
							"parameters": [
								{
									"allowMultiple": false,
									"dataType": "uid",
									"description": "用户Uid",
									"paramType": "body",
									"required": true
								}
								
							],
							"responseClass": "void",
							"reviser": "完成",
							"revisionDesc": "修改于2015/05/10 15:36",
							"revisionHighlight": true,
							"summary": "获取好友列表",
							 "revisionDesc":"测试uid:test001",
							"updateTime": "2015/05/10 15:36"
						}
            ],
            "path": "/user_friend_list.php"
        },{
					"operations": [
						{
							"apiStatus": 1,
							"httpMethod": "POST",
							"nickname": "user_get_list",
							"parameters": [
								{
									"allowMultiple": false,
									"dataType": "new_uid",
									"description": "uid列表（u123123,u12321,u123213）",
									"paramType": "body",
									"required": true
								},{
									"allowMultiple": false,
									"dataType": "uid",
									"description": "用户Uid",
									"paramType": "body",
									"required": true
								}
								
							],
							"responseClass": "void",
							"reviser": "完成",
							"revisionDesc": "修改于2015/05/10 15:36",
							"revisionHighlight": true,
							"summary": "获取新增用户列表（用于插入）",
							 "revisionDesc":"测试uid:test001,test002",
							"updateTime": "2015/05/10 15:36"
						}
            ],
            "path": "/user_get_list.php"
        },{
					"operations": [
						{
							"apiStatus": 1,
							"httpMethod": "POST",
							"nickname": "user_search",
							"parameters": [
								{
									"allowMultiple": false,
									"dataType": "keyword",
									"description": "用户名or昵称",
									"paramType": "body",
									"required": true
								}
								
							],
							"responseClass": "void",
							"reviser": "完成",
							"revisionDesc": "修改于2015/05/10 15:36",
							"revisionHighlight": true,
							"summary": "搜索用户",
							 "revisionDesc":"测试uid:test001",
							"updateTime": "2015/05/10 15:36"
						}
            ],
            "path": "/user_search.php"
        },{
					"operations": [
						{
							"apiStatus": 1,
							"httpMethod": "POST",
							"nickname": "user_search_random",
							"parameters": [
								{
									"allowMultiple": false,
									"dataType": "uid",
									"description": "本人uid",
									"paramType": "body",
									"required": true
								}
								
							],
							"responseClass": "void",
							"reviser": "完成",
							"revisionDesc": "修改于2015/05/10 15:36",
							"revisionHighlight": true,
							"summary": "随机用户",
							 "revisionDesc":"测试uid:test001",
							"updateTime": "2015/05/10 15:36"
						}
            ],
            "path": "/user_search_random.php"
        },{
					"operations": [
						{
							"apiStatus": 2,
							"httpMethod": "POST",  
							
							  "revisionHighlight":true,  
							"nickname": "user_feedback_create",
							"parameters": [
								{
									"allowMultiple": false,
									"dataType": "uid",
									"description": "用户Uid",
									"paramType": "body",
									"required": true
								},
								{
									"allowMultiple": false,
									"dataType": "content",
									"description": "内容",
									"paramType": "body",
									"required": true
								},
								{
									"allowMultiple": false,
									"dataType": "type",
									"description": "类型id（1-5）",
									"paramType": "body",
									"required": true
								},
								{
									"allowMultiple": false,
									"dataType": "phone",
									"description": "联系手机",
									"paramType": "body",
									"required": false
								},
								{
									"allowMultiple": false,
									"dataType": "email",
									"description": "邮箱",
									"paramType": "body",
									"required": false
								}
								
							],
							"responseClass": "void",
							"reviser": "完成",
							"revisionDesc": "修改于2014/11/16 15:36",
							"revisionHighlight": true,   
							"summary": "用户反馈",
							"updateTime": "2014/11/16 15:36"
						}
            ],
            "path": "/user_feedback_create.php"
        },{
					"operations": [
						{
							"apiStatus": 1,
							"httpMethod": "GET",
							 "description":"<font color=blue>废弃-->直接调用环信的添加好友</font>",
							"nickname": "user_friend_add",
							"parameters": [
								{
									"allowMultiple": false,
									"dataType": "uid",
									"description": "用户Uid",
									"paramType": "body",
									"required": true
								},
								{
									"allowMultiple": false,
									"dataType": "fuid",
									"description": "好友Uid",
									"paramType": "body",
									"required": true
								},
								{
									"allowMultiple": false,
									"dataType": "type",
									"description":"添加類型 : <pre> 1 : 添加好友 </pre>",
									"paramType": "body",
									"required": true
								},
								{
									"allowMultiple": false,
									"dataType": "content",
									"description": "邀请语",
									"paramType": "body",
									"required": true
								}
								
								
							],
							"responseClass": "void",
							"reviser": "完成",
							"revisionDesc": "修改于2015/05/10 15:36",
							"revisionHighlight": true,
							"summary": "添加好友<font color=red>---(废弃)</font>",
							"updateTime": "2015/05/10 15:36"
						}
            ],
            "path": "/user_friend_add.php"
        },{
					"operations": [
						{
							"apiStatus": 1,
							"httpMethod": "GET",
							 "description":"<font color=blue>废弃-->他们做好了</font><br>app端要监听通知：<a href='http://www.rongcloud.cn/docs/server.html#消息发送服务' target='_blank'>http://www.rongcloud.cn/docs/server.html#消息发送服务--【使用了这个：添加联系人消息RC:ContactNtf】</a>",   
							"nickname": "user_friend_update",
							"parameters": [
								{
									"allowMultiple": false,
									"dataType": "uid",
									"description": "用户Uid",
									"paramType": "body",
									"required": true
								},
								{
									"allowMultiple": false,
									"dataType": "fuid",
									"description": "好友Uid",
									"paramType": "body",
									"required": true
								},
								{
									"allowMultiple": false,
									"dataType": "status",
									"description":"類型 : <pre> 1 : 同意 2：拒绝 </pre>",
									"paramType": "body",
									"required": true
								},
								{
									"allowMultiple": false,
									"dataType": "content",
									"description": "拒绝原因",
									"paramType": "body",
									"required": true
								}
								
								
							],
							"responseClass": "void",
							"reviser": "完成",
							"revisionDesc": "修改于2015/05/10 15:36",
							"revisionHighlight": true,
							"summary": "更新邀请好友状态<font color=red>---(废弃)</font>",
							"updateTime": "2015/05/10 15:36"
						}
            ],
            "path": "/user_friend_update.php"
        },{
					"operations": [
						{
							"apiStatus": 1,
							"httpMethod": "GET",
							"nickname": "user_friend_delete",
							 "description":"<font color=blue>废弃-->他们做好了</font><br>app端要监听通知同时删除：<a href='http://www.rongcloud.cn/docs/server.html#消息发送服务' target='_blank'>http://www.rongcloud.cn/docs/server.html#消息发送服务--【使用了这个：添加联系人消息RC:ContactNtf】</a>",  
							"parameters": [
								{
									"allowMultiple": false,
									"dataType": "uid",
									"description": "用户Uid",
									"paramType": "body",
									"required": true
								},
								{
									"allowMultiple": false,
									"dataType": "fuid",
									"description": "好友Uid",
									"paramType": "body",
									"required": true
								}
								
							],
							"responseClass": "void",
							"reviser": "完成",
							"revisionDesc": "修改于2015/05/10 15:36",
							"revisionHighlight": true,
							"summary": "删除好友<font color=red>---(废弃)</font>",
							"updateTime": "2015/05/10 15:36"
						}
            ],
            "path": "/user_friend_delete.php"
        },     
  	 {   
        "path":"/user_images_add.php",
        "operations":[
        {
            "updateTime":"2012/10/17 12:17",
            "httpMethod":"POST",            
            "summary":"用戶上傳图片",
            "apiStatus":3,            
            "reviser":"完成",                      
            "responseClass":"void",
            "nickname":"user_image_add",
            "updateTime":"2015/10/16 15:36",
            "revisionHighlight":true,
            "revisionDesc":"测试 UID u60338903 http://www.xxx.com/mosjoyapi/shuke/upload.html  , 路徑 http://www.xxx.com/mosjoyapi/shuke/---待修改",             
            "parameters":[
            {
                "description":"用户的ID",
                "paramType":"body",
                "required":true,
                "allowMultiple":false,
                "dataType":"uid"
            },
            {
                "description":"图片",
                "paramType":"body",
                "required":true,
                "allowMultiple":false,
                "dataType":"userfile"
            },{
                "description":"图片剪切方式，默认不填为fit，crop为剪切，用于发布活动时",
                "paramType":"body",
                "required":true,
                "allowMultiple":false,
                "dataType":"fit_or_crop"
            }, 
			{
                "description":"缩略图大小:如：个人头像填80x80 ,  历程140x140,  活动为480x300(采用crod方式)",
                "paramType":"body",
                "required":true,
                "allowMultiple":false,
                "dataType":"thumbs_size"
            },           
           {
                "description":"文件類型  avatar | thumbs | userthumbs",
                "paramType":"body",
                "required":false,
                "allowMultiple":false,
                "dataType":"type"
            },
			{
                 "description":"设置唯一的组图id，如：android+用户uid+时间戳+随机数<br>eg:iosu3340140987622334",
                "paramType":"body",
                "required":true,
                "allowMultiple":false,
                "dataType":"imggrpid"
            },            
           {
                "description":"備註",
                "paramType":"body",
                "required":false,
                "allowMultiple":false,
                "dataType":"remark"
            }              
            ]
        }
        ]
    },     
  	 {   
        "path":"/user_avator_update.php",
        "operations":[
        {
            "updateTime":"2012/10/17 12:17",
            "httpMethod":"POST",            
            "summary":"用戶/群组头像更新",
            "apiStatus":2,            
            "reviser":"更新",                      
            "responseClass":"void",
            "nickname":"user_avator_update",
            "updateTime":"2015/06/06 00:36",
            "revisionHighlight":true,
            "revisionDesc":"后台帮你上传到对应用户或者群组的信息中，你只要更新好本地即可",             
            "parameters":[
            {
                "description":"用户的uid",
                "paramType":"body",
                "required":true,
                "allowMultiple":false,
                "dataType":"uid"
            },{
                "description":"群组group_id",
                "paramType":"body",
                "required":true,
                "allowMultiple":false,
                "dataType":"group_id"
            },{
                "description":"修改头像填：avatar, 修改背景填：background",
                "paramType":"body",
                "required":true,
                "allowMultiple":false,
                "dataType":"type"
            },
            {
                "description":"图片",
                "paramType":"body",
                "required":true,
                "allowMultiple":false,
                "dataType":"userfile"
            }, 
			{
                "description":"缩略图大小:如：个人头像填200x200 ",
                "paramType":"body",
                "required":true,
                "allowMultiple":false,
                "dataType":"thumbs_size"
            },           
           
			{
                 "description":"设置唯一的组图id，如：android+用户uid+时间戳+随机数<br>eg:iosu3340140987622334",
                "paramType":"body",
                "required":false,
                "allowMultiple":false,
                "dataType":"imggrpid"
            },            
           {
                "description":"備註",
                "paramType":"body",
                "required":false,
                "allowMultiple":false,
                "dataType":"remark"
            }              
            ]
        }
        ]
    },     
   {   
        "path":"/user_mutil_images_add.php",
        "operations":[
        {
            "updateTime":"2012/10/17 12:17",
            "httpMethod":"POST",            
            "summary":"用戶多图上傳图片",
            "apiStatus":3,            
            "reviser":"完成",                      
            "responseClass":"void",
            "nickname":"user_mutil_images_add",
            "updateTime":"2015/10/16 15:36",
            "revisionHighlight":true,
            "revisionDesc":"测试 UID u60338903 http://www.xxx.com/mosjoyapi/shuke/mutil_upload.html  , 路徑 http://www.xxx.com/mosjoyapi/shuke/---待修改",             
            "parameters":[
            {
                "description":"用户的ID",
                "paramType":"body",
                "required":true,
                "allowMultiple":false,
                "dataType":"uid"
            },
            {
                "description":"图片1",
                "paramType":"body",
                "required":true,
                "allowMultiple":false,
                "dataType":"userfile1"
            },
            {
                "description":"图片2",
                "paramType":"body",
                "required":true,
                "allowMultiple":false,
                "dataType":"userfile2"
            },
            {
                "description":"图片3",
                "paramType":"body",
                "required":true,
                "allowMultiple":false,
                "dataType":"userfile3"
            },
            {
                "description":"图片4",
                "paramType":"body",
                "required":true,
                "allowMultiple":false,
                "dataType":"userfile4"
            },
            {
                "description":"图片5",
                "paramType":"body",
                "required":true,
                "allowMultiple":false,
                "dataType":"userfile5"
            },
            {
                "description":"图片6",
                "paramType":"body",
                "required":true,
                "allowMultiple":false,
                "dataType":"userfile6"
            },
            {
                "description":"图片7",
                "paramType":"body",
                "required":true,
                "allowMultiple":false,
                "dataType":"userfile7"
            },
            {
                "description":"图片8",
                "paramType":"body",
                "required":true,
                "allowMultiple":false,
                "dataType":"userfile8"
            },
            {
                "description":"图片9",
                "paramType":"body",
                "required":true,
                "allowMultiple":false,
                "dataType":"userfile9"
            }, 
			{
                "description":"缩略图大小:如：大概填100x100 ",
                "paramType":"body",
                "required":true,
                "allowMultiple":false,
                "dataType":"thumbs_size"
            },           
           {
                "description":"文件類型  thumbs ",
                "paramType":"body",
                "required":false,
                "allowMultiple":false,
                "dataType":"type"
            },
			{
                 "description":"设置唯一的组图标志imggrpid，如：android+用户uid+时间戳+随机数<br>如：ios+用户uid+时间戳+随机数<br>eg:iosu3340140987622334",
                "paramType":"body",
                "required":true,
                "allowMultiple":false,
                "dataType":"imggrpid"
            },            
           {
                "description":"備註",
                "paramType":"body",
                "required":false,
                "allowMultiple":false,
                "dataType":"remark"
            }              
            ]
        }
        ]
    },
   {   
        "path":"/user_images_update.php",
        "operations":[
        {
            "updateTime":"2015/10/17 12:17",
            "httpMethod":"POST",            
            "summary":"修改用戶圖片",
            "apiStatus":3,            
            "reviser":"完成",                      
            "responseClass":"void",
            "nickname":"user_upload_update",
            "updateTime":"2015/05/12 15:36",
            "revisionHighlight":true,
            "revisionDesc":"测试 UID u60338903 ",             
            "parameters":[
            {
                "description":"圖片的ID",
                "paramType":"body",
                "required":true,
                "allowMultiple":false,
                "dataType":"fileid"
            },{
                "description":"缩略图大小:如：个人头像填200x200 ",
                "paramType":"body",
                "required":true,
                "allowMultiple":false,
                "dataType":"thumbs_size"
            },
           {
                "description":"圖片路徑",
                "paramType":"body",
                "required":false,
                "allowMultiple":false,
                "dataType":"filepath"
            },
           {
                "description":"文件",
                "paramType":"body",
                "required":false,
                "allowMultiple":false,
                "dataType":"userfile"
            },            
           {
                "description":"圖片類型",
                "paramType":"body",
                "required":false,
                "allowMultiple":false,
                "dataType":"type"
            },
           {
                "description":"備註",
                "paramType":"body",
                "required":false,
                "allowMultiple":false,
                "dataType":"remark"
            },
           {
                "description":"1為刪除, 0 為顯示",
                "paramType":"body",
                "required":false,
                "allowMultiple":false,
                "dataType":"is_delete"
            }                         
            ]
        }
        ]
    },     
   {   
        "path":"/user_images_list.php",
        "operations":[
        {
            "updateTime":"2015/10/17 12:17",
            "httpMethod":"POST",            
            "summary":"用戶圖片列表",
            "apiStatus":3,            
            "reviser":"完成",                      
            "responseClass":"void",
            "nickname":"user_upload_list",
            "updateTime":"2015/05/12 15:36",
            "revisionHighlight":true,
            "revisionDesc":"测试 UID u60338903 ",             
            "parameters":[
            {
                "description":"用户的ID",
                "paramType":"body",
                "required":true,
                "allowMultiple":false,
                "dataType":"uid"
            },
			{
                "description":"用户自設的ID， 用以獲取一組圖片",
                "paramType":"body",
                "required":true,
                "allowMultiple":false,
                "dataType":"imggrpid"
            },               
            {
                "description":"圖片類型",
                "paramType":"body",
                "required":true,
                "allowMultiple":false,
                "dataType":"type"
            }                          
            ]
        }
        ]
    },   
   {   
        "path":"/user_images_getinfo.php",
        "operations":[
        {
            "updateTime":"2012/10/17 12:17",
            "httpMethod":"POST",            
            "summary":"用戶圖片資料",
            "apiStatus":3,            
            "reviser":"完成",                      
            "responseClass":"void",
            "nickname":"user_image_getinfo",
            "updateTime":"2015/05/12 15:36",
            "revisionHighlight":true,
            "revisionDesc":"测试 UID u60338903 ",             
            "parameters":[
            {
                "description":"文件的ID",
                "paramType":"body",
                "required":true,
                "allowMultiple":false,
                "dataType":"fileid"
            }                          
            ]
        }
        ]
    }
    ],
    "resourcePath": "/",
    "swaggerVersion": "1.2"
}